<?xml version="1.0" encoding="UTF-8" standalone="no"?>
<!-- Created with Inkscape (http://www.inkscape.org/) -->

<svg
   width="71mm"
   height="70.999992mm"
   viewBox="0 0 71 70.999992"
   version="1.1"
   id="svg5"
   inkscape:version="1.2.1 (9c6d41e410, 2022-07-14)"
   sodipodi:docname="scenic_score02.svg"
   xmlns:inkscape="http://www.inkscape.org/namespaces/inkscape"
   xmlns:sodipodi="http://sodipodi.sourceforge.net/DTD/sodipodi-0.dtd"
   xmlns="http://www.w3.org/2000/svg"
   xmlns:svg="http://www.w3.org/2000/svg">
  <sodipodi:namedview
     id="namedview7"
     pagecolor="#ffffff"
     bordercolor="#666666"
     borderopacity="1.0"
     inkscape:showpageshadow="2"
     inkscape:pageopacity="0.0"
     inkscape:pagecheckerboard="0"
     inkscape:deskcolor="#d1d1d1"
     inkscape:document-units="mm"
     showgrid="false"
     showguides="true"
     inkscape:zoom="2.0359279"
     inkscape:cx="82.026481"
     inkscape:cy="127.7059"
     inkscape:window-width="1920"
     inkscape:window-height="1043"
     inkscape:window-x="0"
     inkscape:window-y="0"
     inkscape:window-maximized="1"
     inkscape:current-layer="layer1" />
  <defs
     id="defs2" />
  <g
     inkscape:label="Capa 1"
     inkscape:groupmode="layer"
     id="layer1"
     transform="translate(-21.650582,-13.062001)">
    <rect
       style="fill:#ffffff;fill-opacity:1;stroke:#4d4d4d;stroke-width:0.999999;stroke-linejoin:round;stop-color:#000000"
       id="rect234"
       width="14.000001"
       height="14.000001"
       x="22.150581"
       y="13.562" />
    <rect
       style="fill:#ffffff;fill-opacity:1;stroke:#4d4d4d;stroke-width:0.999999;stroke-linejoin:round;stop-color:#000000"
       id="rect234-3"
       width="14.000001"
       height="14.000001"
       x="36.150581"
       y="13.562" />
    <rect
       style="fill:#ffffff;fill-opacity:1;stroke:#4d4d4d;stroke-width:0.999999;stroke-linejoin:round;stop-color:#000000"
       id="rect234-6"
       width="14.000001"
       height="14.000001"
       x="50.150581"
       y="13.562" />
    <rect
       style="fill:#ffffff;fill-opacity:1;stroke:#4d4d4d;stroke-width:0.999999;stroke-linejoin:round;stop-color:#000000"
       id="rect234-7"
       width="14.000001"
       height="14.000001"
       x="64.150581"
       y="13.562" />
    <rect
       style="fill:#ffffff;fill-opacity:1;stroke:#4d4d4d;stroke-width:0.999999;stroke-linejoin:round;stop-color:#000000"
       id="rect234-5"
       width="14.000001"
       height="14.000001"
       x="78.150581"
       y="13.562" />
    <rect
       style="fill:#ffffff;fill-opacity:1;stroke:#4d4d4d;stroke-width:0.999999;stroke-linejoin:round;stop-color:#000000"
       id="rect234-56"
       width="14.000001"
       height="14.000001"
       x="22.150581"
       y="27.562" />
    <rect
       style="fill:#ffffff;fill-opacity:1;stroke:#4d4d4d;stroke-width:0.999999;stroke-linejoin:round;stop-color:#000000"
       id="rect234-5-2"
       width="14.000001"
       height="14.000001"
       x="78.150581"
       y="27.562" />
    <rect
       style="fill:#ffffff;fill-opacity:1;stroke:#4d4d4d;stroke-width:0.999999;stroke-linejoin:round;stop-color:#000000"
       id="rect234-0"
       width="14.000001"
       height="14.000001"
       x="22.150581"
       y="41.562" />
    <rect
       style="fill:#ffffff;fill-opacity:1;stroke:#4d4d4d;stroke-width:0.999999;stroke-linejoin:round;stop-color:#000000"
       id="rect234-5-0"
       width="14.000001"
       height="14.000001"
       x="78.150581"
       y="41.562" />
    <rect
       style="fill:#cfffca;fill-opacity:1;stroke:#4d4d4d;stroke-width:0.999999;stroke-linejoin:round;stop-color:#000000"
       id="rect234-2"
       width="14.000001"
       height="14.000001"
       x="22.150581"
       y="55.562" />
    <rect
       style="fill:#cfffca;fill-opacity:1;stroke:#4d4d4d;stroke-width:0.999999;stroke-linejoin:round;stop-color:#000000"
       id="rect234-5-7"
       width="14.000001"
       height="14.000001"
       x="78.150581"
       y="55.562" />
    <rect
       style="fill:#ffffff;fill-opacity:1;stroke:#4d4d4d;stroke-width:0.999999;stroke-linejoin:round;stop-color:#000000"
       id="rect234-20"
       width="14.000001"
       height="14.000001"
       x="22.150581"
       y="69.561996" />
    <rect
       style="fill:#ffffff;fill-opacity:1;stroke:#4d4d4d;stroke-width:0.999999;stroke-linejoin:round;stop-color:#000000"
       id="rect234-3-23"
       width="14.000001"
       height="14.000001"
       x="36.150581"
       y="69.561996" />
    <rect
       style="fill:#cfffca;fill-opacity:1;stroke:#4d4d4d;stroke-width:0.999999;stroke-linejoin:round;stop-color:#000000"
       id="rect234-6-7"
       width="14.000001"
       height="14.000001"
       x="50.150581"
       y="69.561996" />
    <rect
       style="fill:#ffffff;fill-opacity:1;stroke:#4d4d4d;stroke-width:0.999999;stroke-linejoin:round;stop-color:#000000"
       id="rect234-7-5"
       width="14.000001"
       height="14.000001"
       x="64.150581"
       y="69.561996" />
    <rect
       style="fill:#ffffff;fill-opacity:1;stroke:#4d4d4d;stroke-width:0.999999;stroke-linejoin:round;stop-color:#000000"
       id="rect234-5-9"
       width="14.000001"
       height="14.000001"
       x="78.150581"
       y="69.561996" />
    <rect
       style="fill:#ffffff;fill-opacity:1;stroke:#4d4d4d;stroke-width:0.999999;stroke-linejoin:round;stop-color:#000000"
       id="rect234-3-2"
       width="14.000001"
       height="14.000001"
       x="36.150581"
       y="27.562" />
    <rect
       style="fill:#cfffca;fill-opacity:1;stroke:#4d4d4d;stroke-width:0.999999;stroke-linejoin:round;stop-color:#000000"
       id="rect234-6-9"
       width="14.000001"
       height="14.000001"
       x="50.150581"
       y="27.562" />
    <rect
       style="fill:#ffffff;fill-opacity:1;stroke:#4d4d4d;stroke-width:0.999999;stroke-linejoin:round;stop-color:#000000"
       id="rect234-3-9"
       width="14.000001"
       height="14.000001"
       x="36.150581"
       y="41.562" />
    <rect
       style="fill:#ffffff;fill-opacity:1;stroke:#4d4d4d;stroke-width:0.999999;stroke-linejoin:round;stop-color:#000000"
       id="rect234-7-6"
       width="14.000001"
       height="14.000001"
       x="64.150581"
       y="41.562" />
    <rect
       style="fill:#6eff61;fill-opacity:1;stroke:#4d4d4d;stroke-width:0.999999;stroke-linejoin:round;stop-color:#000000"
       id="rect234-6-1"
       width="14.000001"
       height="14.000001"
       x="50.150581"
       y="55.562" />
    <rect
       style="fill:#ffffff;fill-opacity:1;stroke:#4d4d4d;stroke-width:0.999999;stroke-linejoin:round;stop-color:#000000"
       id="rect234-7-1"
       width="14.000001"
       height="14.000001"
       x="64.150581"
       y="27.562" />
    <rect
       style="fill:#cfffca;fill-opacity:1;stroke:#4d4d4d;stroke-width:0.999999;stroke-linejoin:round;stop-color:#000000"
       id="rect234-6-3"
       width="14.000001"
       height="14.000001"
       x="50.150581"
       y="41.562" />
    <rect
       style="fill:#cfffca;fill-opacity:1;stroke:#4d4d4d;stroke-width:0.999999;stroke-linejoin:round;stop-color:#000000"
       id="rect234-3-6"
       width="14.000001"
       height="14.000001"
       x="36.150581"
       y="55.562" />
    <rect
       style="fill:#cfffca;fill-opacity:1;stroke:#4d4d4d;stroke-width:0.999999;stroke-linejoin:round;stop-color:#000000"
       id="rect234-7-8"
       width="14.000001"
       height="14.000001"
       x="64.150581"
       y="55.562" />
    <g
       aria-label="3"
       id="text726"
       style="font-weight:bold;font-size:10.5833px;line-height:1.25;font-family:Caladea;-inkscape-font-specification:'Caladea Bold';stroke-width:0.264583">
      <path
         d="m 28.960082,24.192073 c 1.24883,0 2.656408,-0.634998 2.656408,-2.000244 0,-0.941913 -0.370415,-1.534578 -1.566328,-1.799161 0.920747,-0.296332 1.386412,-0.86783 1.386412,-1.661578 0,-1.068913 -0.952497,-1.799161 -2.338909,-1.799161 -0.973663,0 -2.349492,0.444499 -2.349492,1.576912 0,0.507998 0.306915,0.910164 0.888997,0.910164 0.285749,0 0.560915,-0.105833 0.761997,-0.317499 -0.09525,-0.179916 -0.148166,-0.402165 -0.148166,-0.624415 0,-0.476248 0.232833,-0.941913 0.783164,-0.941913 0.402166,0 0.709081,0.328082 0.709081,1.195912 0,0.846664 -0.550331,1.259413 -1.555745,1.344079 v 0.656165 c 1.068914,0 1.682745,0.539748 1.682745,1.449912 0,0.910164 -0.349249,1.259413 -0.910164,1.259413 -0.582081,0 -0.825497,-0.338666 -0.825497,-0.761998 0,-0.158749 0.02117,-0.328082 0.09525,-0.486832 -0.232833,-0.179916 -0.486832,-0.285749 -0.730248,-0.285749 -0.444499,0 -0.814914,0.285749 -0.814914,0.825498 0,0.941913 1.068913,1.460495 2.275409,1.460495 z"
         id="path1265" />
    </g>
    <g
       aria-label="0"
       id="text726-1"
       style="font-weight:bold;font-size:10.5833px;line-height:1.25;font-family:Caladea;-inkscape-font-specification:'Caladea Bold';stroke-width:0.264583">
      <path
         d="m 43.155873,24.18149 c 1.650994,0 2.561158,-1.28058 2.561158,-3.630072 0,-2.338909 -0.910164,-3.608905 -2.561158,-3.608905 -1.650995,0 -2.571742,1.280579 -2.571742,3.608905 0,2.338909 0.920747,3.630072 2.571742,3.630072 z m 0,-0.582082 c -0.709082,0 -1.015997,-0.83608 -1.015997,-3.04799 0,-2.222493 0.306915,-3.069157 1.015997,-3.069157 0.709081,0 1.015996,0.857247 1.015996,3.069157 0,2.201326 -0.306915,3.04799 -1.015996,3.04799 z"
         id="path1280" />
    </g>
    <g
       aria-label="3"
       id="text726-6"
       style="font-weight:bold;font-size:10.5833px;line-height:1.25;font-family:Caladea;-inkscape-font-specification:'Caladea Bold';stroke-width:0.264583">
      <path
         d="m 56.960082,24.192073 c 1.24883,0 2.656408,-0.634998 2.656408,-2.000244 0,-0.941913 -0.370415,-1.534578 -1.566328,-1.799161 0.920747,-0.296332 1.386412,-0.86783 1.386412,-1.661578 0,-1.068913 -0.952497,-1.799161 -2.338909,-1.799161 -0.973663,0 -2.349492,0.444499 -2.349492,1.576912 0,0.507998 0.306915,0.910164 0.888997,0.910164 0.285749,0 0.560915,-0.105833 0.761997,-0.317499 -0.09525,-0.179916 -0.148166,-0.402165 -0.148166,-0.624415 0,-0.476248 0.232833,-0.941913 0.783164,-0.941913 0.402166,0 0.709081,0.328082 0.709081,1.195912 0,0.846664 -0.550331,1.259413 -1.555745,1.344079 v 0.656165 c 1.068914,0 1.682745,0.539748 1.682745,1.449912 0,0.910164 -0.349249,1.259413 -0.910164,1.259413 -0.582081,0 -0.825497,-0.338666 -0.825497,-0.761998 0,-0.158749 0.02117,-0.328082 0.09525,-0.486832 -0.232833,-0.179916 -0.486832,-0.285749 -0.730248,-0.285749 -0.444499,0 -0.814914,0.285749 -0.814914,0.825498 0,0.941913 1.068913,1.460495 2.275409,1.460495 z"
         id="path1295" />
    </g>
    <g
       aria-label="7"
       id="text726-2"
       style="font-weight:bold;font-size:10.5833px;line-height:1.25;font-family:Caladea;-inkscape-font-specification:'Caladea Bold';stroke-width:0.264583">
      <path
         d="m 70.780168,24.139156 c 0.412748,0 0.709081,-0.179917 0.920747,-0.433916 -0.264583,-0.190499 -0.370416,-0.476248 -0.370416,-0.793747 0,-1.502829 2.190743,-5.270483 2.317743,-5.471566 l -0.211666,-0.455082 c -0.338666,0 -1.12183,0.01058 -2.33891,0.01058 -1.206496,0 -1.915577,-0.01058 -2.275409,-0.01058 l -0.169333,0.158749 0.296333,1.820328 c 0.137583,0.02117 0.275165,0.03175 0.412748,0.03175 0.137583,0 0.264583,-0.01058 0.391582,-0.03175 0.02117,-0.391582 0.07408,-0.772581 0.179917,-1.12183 h 2.412992 l -1.24883,1.926161 c -1.058329,1.629828 -1.407578,2.444742 -1.407578,3.291406 0,0.666748 0.391582,1.079497 1.09008,1.079497 z"
         id="path1310" />
    </g>
    <g
       aria-label="3"
       id="text726-15"
       style="font-weight:bold;font-size:10.5833px;line-height:1.25;font-family:Caladea;-inkscape-font-specification:'Caladea Bold';stroke-width:0.264583">
      <path
         d="m 84.960082,24.192073 c 1.24883,0 2.656408,-0.634998 2.656408,-2.000244 0,-0.941913 -0.370415,-1.534578 -1.566328,-1.799161 0.920747,-0.296332 1.386412,-0.86783 1.386412,-1.661578 0,-1.068913 -0.952497,-1.799161 -2.338909,-1.799161 -0.973663,0 -2.349492,0.444499 -2.349492,1.576912 0,0.507998 0.306915,0.910164 0.888997,0.910164 0.285749,0 0.560915,-0.105833 0.761997,-0.317499 -0.09525,-0.179916 -0.148166,-0.402165 -0.148166,-0.624415 0,-0.476248 0.232833,-0.941913 0.783164,-0.941913 0.402166,0 0.709081,0.328082 0.709081,1.195912 0,0.846664 -0.550331,1.259413 -1.555745,1.344079 v 0.656165 c 1.068914,0 1.682745,0.539748 1.682745,1.449912 0,0.910164 -0.349249,1.259413 -0.910164,1.259413 -0.582081,0 -0.825497,-0.338666 -0.825497,-0.761998 0,-0.158749 0.02117,-0.328082 0.09525,-0.486832 -0.232833,-0.179916 -0.486832,-0.285749 -0.730248,-0.285749 -0.444499,0 -0.814914,0.285749 -0.814914,0.825498 0,0.941913 1.068913,1.460495 2.275409,1.460495 z"
         id="path1325" />
    </g>
    <g
       aria-label="2"
       id="text726-4"
       style="font-weight:bold;font-size:10.5833px;line-height:1.25;font-family:Caladea;-inkscape-font-specification:'Caladea Bold';stroke-width:0.264583">
      <path
         d="m 26.753465,38.149738 h 4.794234 v -1.037163 h -2.846907 c 1.979077,-1.799161 2.772824,-2.984491 2.772824,-4.10632 0,-1.301746 -0.952497,-2.031994 -2.381242,-2.031994 -1.428746,0 -2.317743,0.730248 -2.317743,1.714495 0,0.634998 0.423332,0.93133 0.888997,0.93133 0.296333,0 0.613832,-0.127 0.857248,-0.359832 -0.148167,-0.1905 -0.22225,-0.391582 -0.22225,-0.603248 0,-0.592665 0.296333,-1.079497 0.761998,-1.079497 0.529165,0 0.761997,0.423332 0.761997,1.142997 0,1.428745 -0.783164,2.603491 -3.069156,4.815401 z"
         id="path1268" />
    </g>
    <g
       aria-label="5"
       id="text726-65"
       style="font-weight:bold;font-size:10.5833px;line-height:1.25;font-family:Caladea;-inkscape-font-specification:'Caladea Bold';stroke-width:0.264583">
      <path
         d="m 43.002415,38.149738 c 1.619245,0 2.582325,-1.005414 2.582325,-2.328326 0,-1.481662 -1.047747,-2.18016 -2.370659,-2.18016 -0.317499,0 -0.656165,0.05292 -0.99483,0.137583 l 0.148166,-1.767411 h 2.624658 l 0.09525,-0.804331 -0.306916,-0.222249 c -0.793747,0.01058 -1.153579,0.02117 -1.502828,0.02117 -0.433916,0 -0.772581,-0.01058 -1.714495,-0.03175 l -0.349249,0.285749 -0.275166,3.005658 0.582082,0.560914 c 0.444498,-0.275165 0.93133,-0.444498 1.344079,-0.444498 0.624415,0 1.09008,0.391582 1.09008,1.439329 0,1.05833 -0.328082,1.587495 -0.952497,1.587495 -0.592665,0 -0.836081,-0.370416 -0.836081,-0.793748 0,-0.158749 0.03175,-0.317499 0.09525,-0.465665 -0.211666,-0.179916 -0.486832,-0.285749 -0.740831,-0.285749 -0.423332,0 -0.804331,0.275166 -0.804331,0.878414 0,0.825497 0.973664,1.407579 2.285993,1.407579 z"
         id="path1283" />
    </g>
    <g
       aria-label="5"
       id="text726-9"
       style="font-weight:bold;font-size:10.5833px;line-height:1.25;font-family:Caladea;-inkscape-font-specification:'Caladea Bold';stroke-width:0.264583">
      <path
         d="m 57.002415,38.149738 c 1.619245,0 2.582325,-1.005414 2.582325,-2.328326 0,-1.481662 -1.047747,-2.18016 -2.370659,-2.18016 -0.317499,0 -0.656165,0.05292 -0.99483,0.137583 l 0.148166,-1.767411 h 2.624658 l 0.09525,-0.804331 -0.306916,-0.222249 c -0.793747,0.01058 -1.153579,0.02117 -1.502828,0.02117 -0.433916,0 -0.772581,-0.01058 -1.714495,-0.03175 l -0.349249,0.285749 -0.275166,3.005658 0.582082,0.560914 c 0.444498,-0.275165 0.93133,-0.444498 1.344079,-0.444498 0.624415,0 1.09008,0.391582 1.09008,1.439329 0,1.05833 -0.328082,1.587495 -0.952497,1.587495 -0.592665,0 -0.836081,-0.370416 -0.836081,-0.793748 0,-0.158749 0.03175,-0.317499 0.09525,-0.465665 -0.211666,-0.179916 -0.486832,-0.285749 -0.740831,-0.285749 -0.423332,0 -0.804331,0.275166 -0.804331,0.878414 0,0.825497 0.973664,1.407579 2.285993,1.407579 z"
         id="path1298" />
    </g>
    <g
       aria-label="1"
       id="text726-45"
       style="font-weight:bold;font-size:10.5833px;line-height:1.25;font-family:Caladea;-inkscape-font-specification:'Caladea Bold';stroke-width:0.264583">
      <path
         d="m 68.975716,38.112698 h 4.317986 l 0.03175,-0.507999 C 73.082036,37.583533 72.309455,37.456533 72.002539,37.2872 v -6.117147 l -0.349248,-0.158749 c -0.730248,0.328082 -1.788578,0.529165 -2.635242,0.592664 V 32.2178 h 1.418162 v 5.0694 c -0.338666,0.148166 -0.846664,0.253999 -1.439329,0.317499 z"
         id="path1313" />
    </g>
    <g
       aria-label="2"
       id="text726-5"
       style="font-weight:bold;font-size:10.5833px;line-height:1.25;font-family:Caladea;-inkscape-font-specification:'Caladea Bold';stroke-width:0.264583">
      <path
         d="m 82.753466,38.149738 h 4.794235 v -1.037163 h -2.846907 c 1.979077,-1.799161 2.772824,-2.984491 2.772824,-4.10632 0,-1.301746 -0.952497,-2.031994 -2.381242,-2.031994 -1.428746,0 -2.317743,0.730248 -2.317743,1.714495 0,0.634998 0.423332,0.93133 0.888997,0.93133 0.296333,0 0.613832,-0.127 0.857248,-0.359832 -0.148167,-0.1905 -0.22225,-0.391582 -0.22225,-0.603248 0,-0.592665 0.296333,-1.079497 0.761998,-1.079497 0.529165,0 0.761997,0.423332 0.761997,1.142997 0,1.428745 -0.783164,2.603491 -3.069157,4.815401 z"
         id="path1328" />
    </g>
    <g
       aria-label="6"
       id="text726-7"
       style="font-weight:bold;font-size:10.5833px;line-height:1.25;font-family:Caladea;-inkscape-font-specification:'Caladea Bold';stroke-width:0.264583">
      <path
         d="m 29.182331,52.197363 c 1.492245,0 2.539992,-0.857248 2.539992,-2.08491 0,-1.301746 -0.867831,-2.11666 -2.27541,-2.11666 -0.370415,0 -0.793747,0.116416 -1.164163,0.296332 0.285749,-1.259413 1.142997,-2.222493 2.571742,-2.836324 l -0.253999,-0.529165 c -2.614075,0.740831 -4.021654,2.338909 -4.021654,4.550819 0,1.756827 0.920747,2.719908 2.603492,2.719908 z m 0.0635,-0.730248 c -0.730248,0 -1.05833,-0.687914 -1.05833,-2.233076 v -0.137583 c 0.349249,-0.243416 0.656164,-0.359832 0.96308,-0.359832 0.656165,0 1.037163,0.507998 1.037163,1.386412 0,0.857247 -0.338665,1.344079 -0.941913,1.344079 z"
         id="path1271" />
    </g>
    <g
       aria-label="5"
       id="text726-3"
       style="font-weight:bold;font-size:10.5833px;line-height:1.25;font-family:Caladea;-inkscape-font-specification:'Caladea Bold';stroke-width:0.264583">
      <path
         d="m 43.002415,52.149738 c 1.619245,0 2.582325,-1.005414 2.582325,-2.328326 0,-1.481662 -1.047747,-2.18016 -2.370659,-2.18016 -0.317499,0 -0.656165,0.05292 -0.99483,0.137583 l 0.148166,-1.767411 h 2.624658 l 0.09525,-0.804331 -0.306916,-0.222249 c -0.793747,0.01058 -1.153579,0.02117 -1.502828,0.02117 -0.433916,0 -0.772581,-0.01058 -1.714495,-0.03175 l -0.349249,0.285749 -0.275166,3.005658 0.582082,0.560914 c 0.444498,-0.275165 0.93133,-0.444498 1.344079,-0.444498 0.624415,0 1.09008,0.391582 1.09008,1.439329 0,1.05833 -0.328082,1.587495 -0.952497,1.587495 -0.592665,0 -0.836081,-0.370416 -0.836081,-0.793748 0,-0.158749 0.03175,-0.317499 0.09525,-0.465665 -0.211666,-0.179916 -0.486832,-0.285749 -0.740831,-0.285749 -0.423332,0 -0.804331,0.275166 -0.804331,0.878414 0,0.825497 0.973664,1.407579 2.285993,1.407579 z"
         id="path1286" />
    </g>
    <g
       aria-label="3"
       id="text726-8"
       style="font-weight:bold;font-size:10.5833px;line-height:1.25;font-family:Caladea;-inkscape-font-specification:'Caladea Bold';stroke-width:0.264583">
      <path
         d="m 56.960082,52.192073 c 1.24883,0 2.656408,-0.634998 2.656408,-2.000244 0,-0.941913 -0.370415,-1.534578 -1.566328,-1.799161 0.920747,-0.296332 1.386412,-0.86783 1.386412,-1.661578 0,-1.068913 -0.952497,-1.799161 -2.338909,-1.799161 -0.973663,0 -2.349492,0.444499 -2.349492,1.576912 0,0.507998 0.306915,0.910164 0.888997,0.910164 0.285749,0 0.560915,-0.105833 0.761997,-0.317499 -0.09525,-0.179916 -0.148166,-0.402165 -0.148166,-0.624415 0,-0.476248 0.232833,-0.941913 0.783164,-0.941913 0.402166,0 0.709081,0.328082 0.709081,1.195912 0,0.846664 -0.550331,1.259413 -1.555745,1.344079 v 0.656165 c 1.068914,0 1.682745,0.539748 1.682745,1.449912 0,0.910164 -0.349249,1.259413 -0.910164,1.259413 -0.582081,0 -0.825497,-0.338666 -0.825497,-0.761998 0,-0.158749 0.02117,-0.328082 0.09525,-0.486832 -0.232833,-0.179916 -0.486832,-0.285749 -0.730248,-0.285749 -0.444499,0 -0.814914,0.285749 -0.814914,0.825498 0,0.941913 1.068913,1.460495 2.275409,1.460495 z"
         id="path1301" />
    </g>
    <g
       aria-label="3"
       id="text726-84"
       style="font-weight:bold;font-size:10.5833px;line-height:1.25;font-family:Caladea;-inkscape-font-specification:'Caladea Bold';stroke-width:0.264583">
      <path
         d="m 70.960082,52.192073 c 1.24883,0 2.656408,-0.634998 2.656408,-2.000244 0,-0.941913 -0.370415,-1.534578 -1.566328,-1.799161 0.920747,-0.296332 1.386412,-0.86783 1.386412,-1.661578 0,-1.068913 -0.952497,-1.799161 -2.338909,-1.799161 -0.973663,0 -2.349492,0.444499 -2.349492,1.576912 0,0.507998 0.306915,0.910164 0.888997,0.910164 0.285749,0 0.560915,-0.105833 0.761997,-0.317499 -0.09525,-0.179916 -0.148166,-0.402165 -0.148166,-0.624415 0,-0.476248 0.232833,-0.941913 0.783164,-0.941913 0.402166,0 0.709081,0.328082 0.709081,1.195912 0,0.846664 -0.550331,1.259413 -1.555745,1.344079 v 0.656165 c 1.068914,0 1.682745,0.539748 1.682745,1.449912 0,0.910164 -0.349249,1.259413 -0.910164,1.259413 -0.582081,0 -0.825497,-0.338666 -0.825497,-0.761998 0,-0.158749 0.02117,-0.328082 0.09525,-0.486832 -0.232833,-0.179916 -0.486832,-0.285749 -0.730248,-0.285749 -0.444499,0 -0.814914,0.285749 -0.814914,0.825498 0,0.941913 1.068913,1.460495 2.275409,1.460495 z"
         id="path1316" />
    </g>
    <g
       aria-label="2"
       id="text726-49"
       style="font-weight:bold;font-size:10.5833px;line-height:1.25;font-family:Caladea;-inkscape-font-specification:'Caladea Bold';stroke-width:0.264583">
      <path
         d="m 82.753466,52.149738 h 4.794235 v -1.037163 h -2.846907 c 1.979077,-1.799161 2.772824,-2.984491 2.772824,-4.10632 0,-1.301746 -0.952497,-2.031994 -2.381242,-2.031994 -1.428746,0 -2.317743,0.730248 -2.317743,1.714495 0,0.634998 0.423332,0.93133 0.888997,0.93133 0.296333,0 0.613832,-0.127 0.857248,-0.359832 -0.148167,-0.1905 -0.22225,-0.391582 -0.22225,-0.603248 0,-0.592665 0.296333,-1.079497 0.761998,-1.079497 0.529165,0 0.761997,0.423332 0.761997,1.142997 0,1.428745 -0.783164,2.603491 -3.069157,4.815401 z"
         id="path1331" />
    </g>
    <g
       aria-label="3"
       id="text726-68"
       style="font-weight:bold;font-size:10.5833px;line-height:1.25;font-family:Caladea;-inkscape-font-specification:'Caladea Bold';stroke-width:0.264583">
      <path
         d="m 28.960082,66.192073 c 1.24883,0 2.656408,-0.634998 2.656408,-2.000244 0,-0.941913 -0.370415,-1.534578 -1.566328,-1.799161 0.920747,-0.296332 1.386412,-0.86783 1.386412,-1.661578 0,-1.068913 -0.952497,-1.799161 -2.338909,-1.799161 -0.973663,0 -2.349492,0.444499 -2.349492,1.576912 0,0.507998 0.306915,0.910164 0.888997,0.910164 0.285749,0 0.560915,-0.105833 0.761997,-0.317499 -0.09525,-0.179916 -0.148166,-0.402165 -0.148166,-0.624415 0,-0.476248 0.232833,-0.941913 0.783164,-0.941913 0.402166,0 0.709081,0.328082 0.709081,1.195912 0,0.846664 -0.550331,1.259413 -1.555745,1.344079 v 0.656165 c 1.068914,0 1.682745,0.539748 1.682745,1.449912 0,0.910164 -0.349249,1.259413 -0.910164,1.259413 -0.582081,0 -0.825497,-0.338666 -0.825497,-0.761998 0,-0.158749 0.02117,-0.328082 0.09525,-0.486832 -0.232833,-0.179916 -0.486832,-0.285749 -0.730248,-0.285749 -0.444499,0 -0.814914,0.285749 -0.814914,0.825498 0,0.941913 1.068913,1.460495 2.275409,1.460495 z"
         id="path1274" />
    </g>
    <g
       aria-label="3"
       id="text726-26"
       style="font-weight:bold;font-size:10.5833px;line-height:1.25;font-family:Caladea;-inkscape-font-specification:'Caladea Bold';stroke-width:0.264583">
      <path
         d="m 42.960082,66.192073 c 1.24883,0 2.656408,-0.634998 2.656408,-2.000244 0,-0.941913 -0.370415,-1.534578 -1.566328,-1.799161 0.920747,-0.296332 1.386412,-0.86783 1.386412,-1.661578 0,-1.068913 -0.952497,-1.799161 -2.338909,-1.799161 -0.973663,0 -2.349492,0.444499 -2.349492,1.576912 0,0.507998 0.306915,0.910164 0.888997,0.910164 0.285749,0 0.560915,-0.105833 0.761997,-0.317499 -0.09525,-0.179916 -0.148166,-0.402165 -0.148166,-0.624415 0,-0.476248 0.232833,-0.941913 0.783164,-0.941913 0.402166,0 0.709081,0.328082 0.709081,1.195912 0,0.846664 -0.550331,1.259413 -1.555745,1.344079 v 0.656165 c 1.068914,0 1.682745,0.539748 1.682745,1.449912 0,0.910164 -0.349249,1.259413 -0.910164,1.259413 -0.582081,0 -0.825497,-0.338666 -0.825497,-0.761998 0,-0.158749 0.02117,-0.328082 0.09525,-0.486832 -0.232833,-0.179916 -0.486832,-0.285749 -0.730248,-0.285749 -0.444499,0 -0.814914,0.285749 -0.814914,0.825498 0,0.941913 1.068913,1.460495 2.275409,1.460495 z"
         id="path1289" />
    </g>
    <g
       aria-label="5"
       id="text726-95"
       style="font-weight:bold;font-size:10.5833px;line-height:1.25;font-family:Caladea;-inkscape-font-specification:'Caladea Bold';stroke-width:0.264583">
      <path
         d="m 57.002415,66.149738 c 1.619245,0 2.582325,-1.005414 2.582325,-2.328326 0,-1.481662 -1.047747,-2.18016 -2.370659,-2.18016 -0.317499,0 -0.656165,0.05292 -0.99483,0.137583 l 0.148166,-1.767411 h 2.624658 l 0.09525,-0.804331 -0.306916,-0.222249 c -0.793747,0.01058 -1.153579,0.02117 -1.502828,0.02117 -0.433916,0 -0.772581,-0.01058 -1.714495,-0.03175 l -0.349249,0.285749 -0.275166,3.005658 0.582082,0.560914 c 0.444498,-0.275165 0.93133,-0.444498 1.344079,-0.444498 0.624415,0 1.09008,0.391582 1.09008,1.439329 0,1.05833 -0.328082,1.587495 -0.952497,1.587495 -0.592665,0 -0.836081,-0.370416 -0.836081,-0.793748 0,-0.158749 0.03175,-0.317499 0.09525,-0.465665 -0.211666,-0.179916 -0.486832,-0.285749 -0.740831,-0.285749 -0.423332,0 -0.804331,0.275166 -0.804331,0.878414 0,0.825497 0.973664,1.407579 2.285993,1.407579 z"
         id="path1304" />
    </g>
    <g
       aria-label="4"
       id="text726-87"
       style="font-weight:bold;font-size:10.5833px;line-height:1.25;font-family:Caladea;-inkscape-font-specification:'Caladea Bold';stroke-width:0.264583">
      <path
         d="m 71.499832,66.170906 h 1.375829 v -1.894411 h 1.015996 l 0.05292,-0.507998 C 73.373079,63.652081 73.108496,63.577998 72.92858,63.525081 l 0.01058,-2.381242 h -0.603248 c -0.105833,0.423332 -0.253999,0.603248 -0.730247,0.603248 l -0.105833,1.725078 h -1.619245 l 2.518825,-4.148654 c -0.190499,-0.116416 -0.603248,-0.328082 -1.375829,-0.370415 l -2.666991,4.942401 0.08467,0.380998 h 3.058574 z"
         id="path1319" />
    </g>
    <g
       aria-label="9"
       id="text726-72"
       style="font-weight:bold;font-size:10.5833px;line-height:1.25;font-family:Caladea;-inkscape-font-specification:'Caladea Bold';stroke-width:0.264583">
      <path
         d="m 83.700671,66.197364 c 2.614075,-0.740831 4.021654,-2.338909 4.021654,-4.550819 0,-1.756827 -0.920748,-2.719908 -2.603492,-2.719908 -1.492245,0 -2.539992,0.857248 -2.539992,2.08491 0,1.301746 0.86783,2.11666 2.275409,2.11666 0.370416,0 0.793748,-0.116416 1.15358,-0.296332 -0.275166,1.269996 -1.142996,2.233076 -2.561159,2.836324 z m 1.449912,-3.809988 c -0.656165,0 -1.037164,-0.507998 -1.037164,-1.386412 0,-0.857247 0.338666,-1.344079 0.941914,-1.344079 0.730248,0 1.05833,0.687914 1.05833,2.233076 v 0.137583 c -0.359832,0.243416 -0.666748,0.359832 -0.96308,0.359832 z"
         id="path1334" />
    </g>
    <g
       aria-label="0"
       id="text726-261"
       style="font-weight:bold;font-size:10.5833px;line-height:1.25;font-family:Caladea;-inkscape-font-specification:'Caladea Bold';stroke-width:0.264583">
      <path
         d="m 85.155873,80.181482 c 1.650994,0 2.561158,-1.280579 2.561158,-3.630072 0,-2.338909 -0.910164,-3.608905 -2.561158,-3.608905 -1.650995,0 -2.571742,1.280579 -2.571742,3.608905 0,2.33891 0.920747,3.630072 2.571742,3.630072 z m 0,-0.582081 c -0.709082,0 -1.015997,-0.836081 -1.015997,-3.047991 0,-2.222493 0.306915,-3.069157 1.015997,-3.069157 0.709081,0 1.015996,0.857248 1.015996,3.069157 0,2.201327 -0.306915,3.047991 -1.015996,3.047991 z"
         id="path1337" />
    </g>
    <g
       aria-label="9"
       id="text726-59"
       style="font-weight:bold;font-size:10.5833px;line-height:1.25;font-family:Caladea;-inkscape-font-specification:'Caladea Bold';stroke-width:0.264583">
      <path
         d="m 69.700671,80.197364 c 2.614075,-0.740831 4.021654,-2.338909 4.021654,-4.550819 0,-1.756827 -0.920748,-2.719908 -2.603492,-2.719908 -1.492245,0 -2.539992,0.857248 -2.539992,2.08491 0,1.301746 0.86783,2.11666 2.275409,2.11666 0.370416,0 0.793748,-0.116416 1.15358,-0.296332 -0.275166,1.269996 -1.142996,2.233076 -2.561159,2.836324 z m 1.449912,-3.809988 c -0.656165,0 -1.037164,-0.507998 -1.037164,-1.386412 0,-0.857247 0.338666,-1.344079 0.941914,-1.344079 0.730248,0 1.05833,0.687914 1.05833,2.233076 v 0.137583 c -0.359832,0.243416 -0.666748,0.359832 -0.96308,0.359832 z"
         id="path1322" />
    </g>
    <g
       aria-label="3"
       id="text726-0"
       style="font-weight:bold;font-size:10.5833px;line-height:1.25;font-family:Caladea;-inkscape-font-specification:'Caladea Bold';stroke-width:0.264583">
      <path
         d="m 56.960082,80.192065 c 1.24883,0 2.656408,-0.634998 2.656408,-2.000243 0,-0.941914 -0.370415,-1.534579 -1.566328,-1.799161 0.920747,-0.296333 1.386412,-0.867831 1.386412,-1.661578 0,-1.068913 -0.952497,-1.799161 -2.338909,-1.799161 -0.973663,0 -2.349492,0.444498 -2.349492,1.576911 0,0.507999 0.306915,0.910164 0.888997,0.910164 0.285749,0 0.560915,-0.105833 0.761997,-0.317499 -0.09525,-0.179916 -0.148166,-0.402165 -0.148166,-0.624414 0,-0.476249 0.232833,-0.941914 0.783164,-0.941914 0.402166,0 0.709081,0.328082 0.709081,1.195913 0,0.846664 -0.550331,1.259412 -1.555745,1.344079 v 0.656164 c 1.068914,0 1.682745,0.539749 1.682745,1.449912 0,0.910164 -0.349249,1.259413 -0.910164,1.259413 -0.582081,0 -0.825497,-0.338665 -0.825497,-0.761997 0,-0.15875 0.02117,-0.328083 0.09525,-0.486832 -0.232833,-0.179916 -0.486832,-0.285749 -0.730248,-0.285749 -0.444499,0 -0.814914,0.285749 -0.814914,0.825497 0,0.941914 1.068913,1.460495 2.275409,1.460495 z"
         id="path1307" />
    </g>
    <g
       aria-label="5"
       id="text726-77"
       style="font-weight:bold;font-size:10.5833px;line-height:1.25;font-family:Caladea;-inkscape-font-specification:'Caladea Bold';stroke-width:0.264583">
      <path
         d="m 43.002415,80.149738 c 1.619245,0 2.582325,-1.005414 2.582325,-2.328326 0,-1.481662 -1.047747,-2.18016 -2.370659,-2.18016 -0.317499,0 -0.656165,0.05292 -0.99483,0.137583 l 0.148166,-1.767411 h 2.624658 l 0.09525,-0.804331 -0.306916,-0.222249 c -0.793747,0.01058 -1.153579,0.02117 -1.502828,0.02117 -0.433916,0 -0.772581,-0.01058 -1.714495,-0.03175 l -0.349249,0.285749 -0.275166,3.005658 0.582082,0.560914 c 0.444498,-0.275165 0.93133,-0.444498 1.344079,-0.444498 0.624415,0 1.09008,0.391582 1.09008,1.439329 0,1.05833 -0.328082,1.587495 -0.952497,1.587495 -0.592665,0 -0.836081,-0.370416 -0.836081,-0.793748 0,-0.158749 0.03175,-0.317499 0.09525,-0.465665 -0.211666,-0.179916 -0.486832,-0.285749 -0.740831,-0.285749 -0.423332,0 -0.804331,0.275166 -0.804331,0.878414 0,0.825497 0.973664,1.407579 2.285993,1.407579 z"
         id="path1292" />
    </g>
    <g
       aria-label="3"
       id="text726-597"
       style="font-weight:bold;font-size:10.5833px;line-height:1.25;font-family:Caladea;-inkscape-font-specification:'Caladea Bold';stroke-width:0.264583">
      <path
         d="m 28.960082,80.192065 c 1.24883,0 2.656408,-0.634998 2.656408,-2.000243 0,-0.941914 -0.370415,-1.534579 -1.566328,-1.799161 0.920747,-0.296333 1.386412,-0.867831 1.386412,-1.661578 0,-1.068913 -0.952497,-1.799161 -2.338909,-1.799161 -0.973663,0 -2.349492,0.444498 -2.349492,1.576911 0,0.507999 0.306915,0.910164 0.888997,0.910164 0.285749,0 0.560915,-0.105833 0.761997,-0.317499 -0.09525,-0.179916 -0.148166,-0.402165 -0.148166,-0.624414 0,-0.476249 0.232833,-0.941914 0.783164,-0.941914 0.402166,0 0.709081,0.328082 0.709081,1.195913 0,0.846664 -0.550331,1.259412 -1.555745,1.344079 v 0.656164 c 1.068914,0 1.682745,0.539749 1.682745,1.449912 0,0.910164 -0.349249,1.259413 -0.910164,1.259413 -0.582081,0 -0.825497,-0.338665 -0.825497,-0.761997 0,-0.15875 0.02117,-0.328083 0.09525,-0.486832 -0.232833,-0.179916 -0.486832,-0.285749 -0.730248,-0.285749 -0.444499,0 -0.814914,0.285749 -0.814914,0.825497 0,0.941914 1.068913,1.460495 2.275409,1.460495 z"
         id="path1277" />
    </g>
  </g>
</svg>
