<?xml version="1.0" encoding="UTF-8" standalone="no"?>
<!-- Created with Inkscape (http://www.inkscape.org/) -->

<svg
   width="54.977795mm"
   height="54.977795mm"
   viewBox="0 0 54.977795 54.977795"
   version="1.1"
   id="svg5"
   inkscape:version="1.2.2 (b0a8486541, 2022-12-01)"
   sodipodi:docname="example02.svg"
   xmlns:inkscape="http://www.inkscape.org/namespaces/inkscape"
   xmlns:sodipodi="http://sodipodi.sourceforge.net/DTD/sodipodi-0.dtd"
   xmlns="http://www.w3.org/2000/svg"
   xmlns:svg="http://www.w3.org/2000/svg">
  <sodipodi:namedview
     id="namedview7"
     pagecolor="#ffffff"
     bordercolor="#666666"
     borderopacity="1.0"
     inkscape:showpageshadow="2"
     inkscape:pageopacity="0.0"
     inkscape:pagecheckerboard="0"
     inkscape:deskcolor="#d1d1d1"
     inkscape:document-units="mm"
     showgrid="false"
     inkscape:zoom="4.0718557"
     inkscape:cx="133.35443"
     inkscape:cy="102.6559"
     inkscape:window-width="1446"
     inkscape:window-height="991"
     inkscape:window-x="26"
     inkscape:window-y="23"
     inkscape:window-maximized="0"
     inkscape:current-layer="layer1" />
  <defs
     id="defs2">
    <linearGradient
       id="linearGradient792"
       inkscape:swatch="solid">
      <stop
         style="stop-color:#f68d8d;stop-opacity:1;"
         offset="0"
         id="stop790" />
    </linearGradient>
  </defs>
  <g
     inkscape:label="Capa 1"
     inkscape:groupmode="layer"
     id="layer1"
     transform="translate(-8.8685884,-6.7147527)">
    <path
       style="fill:#ff0000;stroke:#14bf00;stroke-width:1;stroke-linecap:butt;stroke-linejoin:miter;stroke-dasharray:none;stroke-opacity:1"
       d="M 38.465211,17.720451 V 49.303174"
       id="path1375-2-9"
       sodipodi:nodetypes="cc" />
    <path
       style="fill:none;stroke:#1c00ff;stroke-width:1;stroke-linecap:butt;stroke-linejoin:miter;stroke-dasharray:none;stroke-opacity:1"
       d="M 22.13048,34.20365 H 50.584491"
       id="path1457"
       sodipodi:nodetypes="cc" />
    <path
       style="fill:#ff0000;stroke:#ff0000;stroke-width:1;stroke-linecap:butt;stroke-linejoin:miter;stroke-dasharray:none;stroke-opacity:1"
       d="m 34.249762,18.227407 v 30.44419"
       id="path1375-2"
       sodipodi:nodetypes="cc" />
    <path
       style="fill:#ff0000;stroke:#1c00ff;stroke-width:1;stroke-linecap:butt;stroke-linejoin:miter;stroke-dasharray:none;stroke-opacity:1"
       d="M 32.712221,19.386021 22.380462,30.561174"
       id="path1375-2-0"
       sodipodi:nodetypes="cc" />
    <g
       id="g1187"
       transform="translate(-9.0583963,-0.5)">
      <circle
         style="fill:#f2f2f2;fill-opacity:1;stroke:#0a0000;stroke-width:1;stroke-linecap:round;stroke-linejoin:round;stroke-dasharray:none;stroke-opacity:1;stop-color:#000000"
         id="path234"
         cx="45.415882"
         cy="14.543234"
         r="6.8284812" />
      <g
         aria-label="1"
         id="text958"
         style="font-size:9.87778px;line-height:1.25;font-family:Caladea;-inkscape-font-specification:Caladea;stroke-width:0.264583">
        <path
           d="m 43.385999,17.857229 h 4.030134 l 0.02963,-0.474133 c -0.227189,-0.01976 -0.948267,-0.138289 -1.234722,-0.296334 v -5.709356 l -0.325967,-0.148167 c -0.681567,0.306211 -1.669345,0.493889 -2.459567,0.553156 v 0.572911 h 1.323622 v 4.731456 c -0.316089,0.138289 -0.790222,0.237067 -1.343378,0.296334 z"
           style="font-weight:bold;-inkscape-font-specification:'Caladea Bold'"
           id="path1189" />
      </g>
    </g>
    <g
       id="g1300"
       transform="translate(-2.3654304,-7.1484542)">
      <circle
         style="fill:#f2f2f2;fill-opacity:1;stroke:#0a0000;stroke-width:1;stroke-linecap:round;stroke-linejoin:round;stroke-dasharray:none;stroke-opacity:1;stop-color:#000000"
         id="path234-3"
         cx="18.5625"
         cy="41.352104"
         r="6.8284812" />
      <g
         aria-label="2"
         id="text958-5"
         style="font-size:9.87778px;line-height:1.25;font-family:Caladea;-inkscape-font-specification:Caladea;stroke-width:0.264583"
         transform="translate(-0.898343,2.3995397)">
        <path
           d="M 17.223526,42.301132 H 21.69816 V 41.33311 h -2.657122 c 1.847144,-1.679223 2.587978,-2.785534 2.587978,-3.832579 0,-1.214967 -0.889,-1.896534 -2.222501,-1.896534 -1.3335,0 -2.163233,0.681567 -2.163233,1.600201 0,0.592667 0.395111,0.869244 0.829733,0.869244 0.276578,0 0.572911,-0.118533 0.8001,-0.335844 -0.138289,-0.1778 -0.207433,-0.365478 -0.207433,-0.563034 0,-0.553155 0.276578,-1.007533 0.7112,-1.007533 0.493889,0 0.7112,0.395111 0.7112,1.0668 0,1.3335 -0.730955,2.429934 -2.864556,4.49439 z"
           style="font-weight:bold;-inkscape-font-specification:'Caladea Bold'"
           id="path1288" />
      </g>
    </g>
    <g
       id="g1305"
       transform="translate(-12.034695,-6.045732)">
      <circle
         style="fill:#f2f2f2;fill-opacity:1;stroke:#0a0000;stroke-width:1;stroke-linecap:round;stroke-linejoin:round;stroke-dasharray:none;stroke-opacity:1;stop-color:#000000"
         id="path234-6"
         cx="68.552597"
         cy="40.249382"
         r="6.8284812" />
      <g
         aria-label="3"
         id="text958-56"
         style="font-size:9.87778px;line-height:1.25;font-family:Caladea;-inkscape-font-specification:Caladea;stroke-width:0.264583"
         transform="translate(-2.1968615,-1.6017525)">
        <path
           d="m 70.571658,45.239213 c 1.165578,0 2.479323,-0.592667 2.479323,-1.866901 0,-0.879122 -0.345722,-1.432278 -1.461911,-1.679222 0.859366,-0.276578 1.293989,-0.809978 1.293989,-1.550812 0,-0.997655 -0.889,-1.679222 -2.18299,-1.679222 -0.908755,0 -2.192867,0.414867 -2.192867,1.471789 0,0.474133 0.286456,0.849489 0.829734,0.849489 0.2667,0 0.523522,-0.09878 0.7112,-0.296333 -0.0889,-0.167923 -0.138289,-0.375356 -0.138289,-0.582789 0,-0.4445 0.217311,-0.879123 0.730956,-0.879123 0.375355,0 0.661811,0.306211 0.661811,1.116189 0,0.790223 -0.513645,1.175456 -1.452034,1.254478 v 0.612423 c 0.997656,0 1.570567,0.503767 1.570567,1.353256 0,0.849489 -0.325966,1.175455 -0.849489,1.175455 -0.543278,0 -0.770467,-0.316089 -0.770467,-0.7112 0,-0.148166 0.01976,-0.306211 0.0889,-0.454378 -0.217311,-0.167922 -0.454377,-0.2667 -0.681566,-0.2667 -0.414867,0 -0.760589,0.2667 -0.760589,0.770467 0,0.879123 0.997655,1.363134 2.123722,1.363134 z"
           style="font-weight:bold;-inkscape-font-specification:'Caladea Bold'"
           id="path1291" />
      </g>
    </g>
    <g
       id="g1310"
       transform="translate(-11.243382,-11.799302)">
      <circle
         style="fill:#f2f2f2;fill-opacity:1;stroke:#0a0000;stroke-width:1;stroke-linecap:round;stroke-linejoin:round;stroke-dasharray:none;stroke-opacity:1;stop-color:#000000"
         id="path234-7"
         cx="47.600868"
         cy="66.163368"
         r="6.8284812" />
      <g
         aria-label="4"
         id="text958-9"
         style="font-size:9.87778px;line-height:1.25;font-family:Caladea;-inkscape-font-specification:Caladea;stroke-width:0.264583"
         transform="translate(-0.58390427,-2.0097978)">
        <path
           d="m 48.510729,71.541489 h 1.284111 v -1.768123 h 0.948267 l 0.04939,-0.474133 c -0.5334,-0.108656 -0.780345,-0.1778 -0.948267,-0.227189 l 0.0099,-2.222501 h -0.563034 c -0.09878,0.395111 -0.237067,0.563034 -0.681567,0.563034 l -0.09878,1.610078 h -1.511301 l 2.350912,-3.87209 c -0.1778,-0.108656 -0.563034,-0.306211 -1.284112,-0.345722 l -2.4892,4.612923 0.07902,0.3556 h 2.854679 z"
           style="font-weight:bold;-inkscape-font-specification:'Caladea Bold'"
           id="path1294" />
      </g>
    </g>
    <g
       aria-label="Type 1"
       id="text1505"
       style="font-size:4.23333px;line-height:1.25;font-family:Caladea;-inkscape-font-specification:Caladea;stroke-width:0.264583">
      <path
         d="m 53.28462,51.356316 h 1.202266 l 0.02117,-0.156634 c -0.169333,-0.02117 -0.338666,-0.05503 -0.423333,-0.105833 l 0.372533,-2.341031 c 0.254,0.0042 0.423333,0.0085 0.541866,0.01693 0.06773,0.131233 0.0889,0.309033 0.07197,0.465666 0.02963,0.0042 0.0635,0.0085 0.09737,0.0085 0.02963,0 0.05927,0 0.09313,-0.0085 l 0.110066,-0.715432 c -0.139699,0.0085 -0.596899,0.0127 -1.130299,0.0127 -0.393699,0 -0.817032,-0.0085 -1.028699,-0.0127 l -0.110066,0.715432 c 0.0254,0.0085 0.05503,0.0085 0.08467,0.0085 0.03387,0 0.06773,-0.0042 0.1016,-0.0085 0.0254,-0.118533 0.1016,-0.317499 0.224367,-0.474133 0.118533,-0.0042 0.296333,-0.0085 0.571499,-0.0085 l -0.376766,2.341031 c -0.09313,0.05503 -0.232833,0.09313 -0.397933,0.105833 z"
         style="font-style:italic;-inkscape-font-specification:'Caladea Italic'"
         id="path1651" />
      <path
         d="m 55.47325,52.283415 c 0.1524,0 0.287867,-0.09737 0.287867,-0.2286 0,-0.04233 -0.01693,-0.0889 -0.0508,-0.1397 -0.0381,0.02117 -0.07197,0.02963 -0.1016,0.02963 -0.05927,0 -0.1016,-0.03387 -0.1016,-0.09737 0,-0.0635 0.0381,-0.122767 0.0762,-0.182033 l 0.973666,-1.494366 c 0.1905,-0.292099 0.300566,-0.605366 0.330199,-0.736599 l -0.04657,-0.08043 c -0.02117,-0.0042 -0.07197,-0.0127 -0.118533,-0.0127 -0.211667,0 -0.436033,0.0508 -0.516467,0.06773 l 0.01693,0.156633 c 0.131233,-0.0042 0.186266,0.04233 0.186266,0.143933 0,0.1016 -0.0254,0.198967 -0.0762,0.313267 -0.127,0.283633 -0.300566,0.596899 -0.486833,0.888999 L 55.63835,49.349717 c -0.03387,-0.0042 -0.0762,-0.0085 -0.1143,-0.0085 -0.1778,0 -0.402166,0.09737 -0.482599,0.131233 l 0.0254,0.135466 c 0.186266,0 0.253999,0.0635 0.270933,0.198967 l 0.2032,1.523999 c -0.2032,0.317499 -0.347133,0.537633 -0.347133,0.702732 0,0.156634 0.105833,0.249767 0.279399,0.249767 z"
         style="font-style:italic;-inkscape-font-specification:'Caladea Italic'"
         id="path1653" />
      <path
         d="m 57.196215,52.283415 c 0.169333,0 0.351366,-0.05503 0.478366,-0.1143 l -0.0381,-0.131233 c -0.0381,0.0085 -0.1524,0.0254 -0.2286,0.0254 -0.0635,0 -0.08467,-0.02963 -0.08467,-0.09313 0,-0.0635 0.04233,-0.351366 0.09313,-0.673099 0.186266,0.08043 0.3429,0.0889 0.457199,0.0889 0.601133,0 0.944033,-0.6858 0.944033,-1.286932 0,-0.4318 -0.105833,-0.757766 -0.541866,-0.757766 -0.2794,0 -0.503767,0.266699 -0.630766,0.465666 l 0.04233,-0.372533 -0.04233,-0.08043 c -0.03387,-0.0085 -0.07197,-0.0127 -0.1143,-0.0127 -0.220133,0 -0.448733,0.1016 -0.516467,0.131233 l 0.0254,0.135466 c 0.0508,-0.0042 0.09313,-0.0085 0.131234,-0.0085 0.09313,0 0.143933,0.03387 0.143933,0.105833 0,0.05927 -0.359833,2.256365 -0.359833,2.408765 0,0.122766 0.05927,0.169333 0.2413,0.169333 z m 0.579966,-1.087966 c -0.173567,0 -0.3175,-0.05503 -0.309033,-0.1651 0.07197,-0.829732 0.431799,-1.468965 0.698499,-1.468965 0.2032,0 0.275167,0.237066 0.275167,0.537633 0,0.461433 -0.270934,1.096432 -0.664633,1.096432 z"
         style="font-style:italic;-inkscape-font-specification:'Caladea Italic'"
         id="path1655" />
      <path
         d="m 59.829349,51.385949 c 0.338667,0 0.635,-0.169333 0.7874,-0.321733 l -0.122767,-0.156633 c -0.118533,0.0889 -0.359833,0.258233 -0.579966,0.258233 -0.220133,0 -0.376767,-0.1651 -0.376767,-0.537633 v -0.09737 c 0.715433,0 1.236133,-0.330199 1.236133,-0.740832 0,-0.2286 -0.173567,-0.448733 -0.579966,-0.448733 -0.613833,0 -1.0414,0.533399 -1.0414,1.350432 0,0.3302 0.169334,0.694266 0.677333,0.694266 z m -0.270933,-1.062566 c 0.06773,-0.444499 0.283633,-0.787399 0.605366,-0.787399 0.160867,0 0.237067,0.118533 0.237067,0.245533 0,0.313266 -0.334433,0.541866 -0.842433,0.541866 z"
         style="font-style:italic;-inkscape-font-specification:'Caladea Italic'"
         id="path1657" />
      <path
         d="m 61.785148,51.356316 h 1.464733 l 0.01693,-0.156634 c -0.135467,-0.0127 -0.364066,-0.04233 -0.499533,-0.110066 l 0.397933,-2.514598 -0.135467,-0.05927 c -0.249766,0.110067 -0.554566,0.2032 -0.927099,0.232833 l -0.0254,0.182034 h 0.6604 l -0.3429,2.158998 c -0.156633,0.07197 -0.452966,0.1016 -0.588433,0.110066 z"
         style="font-style:italic;-inkscape-font-specification:'Caladea Italic'"
         id="path1659" />
    </g>
    <g
       aria-label="Type 2"
       id="text1505-3"
       style="font-size:4.23333px;line-height:1.25;font-family:Caladea;-inkscape-font-specification:Caladea;stroke-width:0.264583">
      <path
         d="m 53.28462,55.968269 h 1.202266 l 0.02117,-0.156633 c -0.169333,-0.02117 -0.338666,-0.05503 -0.423333,-0.105833 l 0.372533,-2.341031 c 0.254,0.0042 0.423333,0.0085 0.541866,0.01693 0.06773,0.131233 0.0889,0.309033 0.07197,0.465666 0.02963,0.0042 0.0635,0.0085 0.09737,0.0085 0.02963,0 0.05927,0 0.09313,-0.0085 l 0.110066,-0.715433 c -0.139699,0.0085 -0.596899,0.0127 -1.130299,0.0127 -0.393699,0 -0.817032,-0.0085 -1.028699,-0.0127 l -0.110066,0.715433 c 0.0254,0.0085 0.05503,0.0085 0.08467,0.0085 0.03387,0 0.06773,-0.0042 0.1016,-0.0085 0.0254,-0.118533 0.1016,-0.3175 0.224367,-0.474133 0.118533,-0.0042 0.296333,-0.0085 0.571499,-0.0085 l -0.376766,2.341031 c -0.09313,0.05503 -0.232833,0.09313 -0.397933,0.105833 z"
         style="font-style:italic;-inkscape-font-specification:'Caladea Italic'"
         id="path1662" />
      <path
         d="m 55.47325,56.895369 c 0.1524,0 0.287867,-0.09737 0.287867,-0.2286 0,-0.04233 -0.01693,-0.0889 -0.0508,-0.1397 -0.0381,0.02117 -0.07197,0.02963 -0.1016,0.02963 -0.05927,0 -0.1016,-0.03387 -0.1016,-0.09737 0,-0.0635 0.0381,-0.122767 0.0762,-0.182034 l 0.973666,-1.494365 c 0.1905,-0.2921 0.300566,-0.605366 0.330199,-0.736599 l -0.04657,-0.08043 c -0.02117,-0.0042 -0.07197,-0.0127 -0.118533,-0.0127 -0.211667,0 -0.436033,0.0508 -0.516467,0.06773 l 0.01693,0.156633 c 0.131233,-0.0042 0.186266,0.04233 0.186266,0.143933 0,0.1016 -0.0254,0.198967 -0.0762,0.313266 -0.127,0.283634 -0.300566,0.5969 -0.486833,0.889 L 55.63835,53.961671 c -0.03387,-0.0042 -0.0762,-0.0085 -0.1143,-0.0085 -0.1778,0 -0.402166,0.09737 -0.482599,0.131234 l 0.0254,0.135466 c 0.186266,0 0.253999,0.0635 0.270933,0.198967 l 0.2032,1.523998 c -0.2032,0.3175 -0.347133,0.537633 -0.347133,0.702733 0,0.156633 0.105833,0.249767 0.279399,0.249767 z"
         style="font-style:italic;-inkscape-font-specification:'Caladea Italic'"
         id="path1664" />
      <path
         d="m 57.196215,56.895369 c 0.169333,0 0.351366,-0.05503 0.478366,-0.1143 l -0.0381,-0.131234 c -0.0381,0.0085 -0.1524,0.0254 -0.2286,0.0254 -0.0635,0 -0.08467,-0.02963 -0.08467,-0.09313 0,-0.0635 0.04233,-0.351366 0.09313,-0.673099 0.186266,0.08043 0.3429,0.0889 0.457199,0.0889 0.601133,0 0.944033,-0.6858 0.944033,-1.286933 0,-0.431799 -0.105833,-0.757766 -0.541866,-0.757766 -0.2794,0 -0.503767,0.2667 -0.630766,0.465667 l 0.04233,-0.372533 -0.04233,-0.08043 c -0.03387,-0.0085 -0.07197,-0.0127 -0.1143,-0.0127 -0.220133,0 -0.448733,0.1016 -0.516467,0.131234 l 0.0254,0.135466 c 0.0508,-0.0042 0.09313,-0.0085 0.131234,-0.0085 0.09313,0 0.143933,0.03387 0.143933,0.105834 0,0.05927 -0.359833,2.256365 -0.359833,2.408764 0,0.122767 0.05927,0.169334 0.2413,0.169334 z m 0.579966,-1.087966 c -0.173567,0 -0.3175,-0.05503 -0.309033,-0.1651 0.07197,-0.829733 0.431799,-1.468965 0.698499,-1.468965 0.2032,0 0.275167,0.237066 0.275167,0.537632 0,0.461433 -0.270934,1.096433 -0.664633,1.096433 z"
         style="font-style:italic;-inkscape-font-specification:'Caladea Italic'"
         id="path1666" />
      <path
         d="m 59.829349,55.997903 c 0.338667,0 0.635,-0.169334 0.7874,-0.321733 l -0.122767,-0.156634 c -0.118533,0.0889 -0.359833,0.258234 -0.579966,0.258234 -0.220133,0 -0.376767,-0.1651 -0.376767,-0.537633 v -0.09737 c 0.715433,0 1.236133,-0.3302 1.236133,-0.740833 0,-0.228599 -0.173567,-0.448733 -0.579966,-0.448733 -0.613833,0 -1.0414,0.5334 -1.0414,1.350433 0,0.330199 0.169334,0.694266 0.677333,0.694266 z m -0.270933,-1.062566 c 0.06773,-0.4445 0.283633,-0.787399 0.605366,-0.787399 0.160867,0 0.237067,0.118533 0.237067,0.245533 0,0.313266 -0.334433,0.541866 -0.842433,0.541866 z"
         style="font-style:italic;-inkscape-font-specification:'Caladea Italic'"
         id="path1668" />
      <path
         d="m 62.246581,55.659236 c 1.104899,-0.842432 1.464733,-1.363132 1.464733,-1.888065 0,-0.414866 -0.2921,-0.643466 -0.706967,-0.643466 -0.478366,0 -0.901699,0.2921 -0.901699,0.690033 0,0.169333 0.105833,0.232833 0.211667,0.232833 0.08467,0 0.169333,-0.0381 0.232833,-0.09313 -0.0381,-0.05927 -0.05503,-0.122767 -0.05503,-0.186267 0,-0.232833 0.203199,-0.419099 0.474132,-0.419099 0.220134,0 0.364067,0.131233 0.364067,0.359833 0,0.524932 -0.334433,1.003299 -1.540932,2.015065 l -0.0381,0.241299 h 1.735665 l 0.04233,-0.309033 z"
         style="font-style:italic;-inkscape-font-specification:'Caladea Italic'"
         id="path1670" />
    </g>
    <g
       aria-label="Type 3"
       id="text1505-0"
       style="font-size:4.23333px;line-height:1.25;font-family:Caladea;-inkscape-font-specification:Caladea;stroke-width:0.264583">
      <path
         d="m 53.28462,60.580223 h 1.202266 l 0.02117,-0.156633 c -0.169333,-0.02117 -0.338666,-0.05503 -0.423333,-0.105833 l 0.372533,-2.341032 c 0.254,0.0042 0.423333,0.0085 0.541866,0.01693 0.06773,0.131233 0.0889,0.309033 0.07197,0.465666 0.02963,0.0042 0.0635,0.0085 0.09737,0.0085 0.02963,0 0.05927,0 0.09313,-0.0085 l 0.110066,-0.715433 c -0.139699,0.0085 -0.596899,0.0127 -1.130299,0.0127 -0.393699,0 -0.817032,-0.0085 -1.028699,-0.0127 l -0.110066,0.715433 c 0.0254,0.0085 0.05503,0.0085 0.08467,0.0085 0.03387,0 0.06773,-0.0042 0.1016,-0.0085 0.0254,-0.118533 0.1016,-0.3175 0.224367,-0.474133 0.118533,-0.0042 0.296333,-0.0085 0.571499,-0.0085 l -0.376766,2.341032 c -0.09313,0.05503 -0.232833,0.09313 -0.397933,0.105833 z"
         style="font-style:italic;-inkscape-font-specification:'Caladea Italic'"
         id="path1673" />
      <path
         d="m 55.47325,61.507322 c 0.1524,0 0.287867,-0.09737 0.287867,-0.2286 0,-0.04233 -0.01693,-0.0889 -0.0508,-0.139699 -0.0381,0.02117 -0.07197,0.02963 -0.1016,0.02963 -0.05927,0 -0.1016,-0.03387 -0.1016,-0.09737 0,-0.0635 0.0381,-0.122766 0.0762,-0.182033 l 0.973666,-1.494365 c 0.1905,-0.2921 0.300566,-0.605366 0.330199,-0.7366 l -0.04657,-0.08043 c -0.02117,-0.0042 -0.07197,-0.0127 -0.118533,-0.0127 -0.211667,0 -0.436033,0.0508 -0.516467,0.06773 l 0.01693,0.156634 c 0.131233,-0.0042 0.186266,0.04233 0.186266,0.143933 0,0.1016 -0.0254,0.198966 -0.0762,0.313266 -0.127,0.283633 -0.300566,0.5969 -0.486833,0.888999 L 55.63835,58.573625 c -0.03387,-0.0042 -0.0762,-0.0085 -0.1143,-0.0085 -0.1778,0 -0.402166,0.09737 -0.482599,0.131233 l 0.0254,0.135467 c 0.186266,0 0.253999,0.0635 0.270933,0.198966 l 0.2032,1.523999 c -0.2032,0.3175 -0.347133,0.537633 -0.347133,0.702733 0,0.156633 0.105833,0.249766 0.279399,0.249766 z"
         style="font-style:italic;-inkscape-font-specification:'Caladea Italic'"
         id="path1675" />
      <path
         d="m 57.196215,61.507322 c 0.169333,0 0.351366,-0.05503 0.478366,-0.1143 l -0.0381,-0.131233 c -0.0381,0.0085 -0.1524,0.0254 -0.2286,0.0254 -0.0635,0 -0.08467,-0.02963 -0.08467,-0.09313 0,-0.0635 0.04233,-0.351366 0.09313,-0.6731 0.186266,0.08043 0.3429,0.0889 0.457199,0.0889 0.601133,0 0.944033,-0.685799 0.944033,-1.286932 0,-0.431799 -0.105833,-0.757766 -0.541866,-0.757766 -0.2794,0 -0.503767,0.2667 -0.630766,0.465666 l 0.04233,-0.372533 -0.04233,-0.08043 c -0.03387,-0.0085 -0.07197,-0.0127 -0.1143,-0.0127 -0.220133,0 -0.448733,0.1016 -0.516467,0.131233 l 0.0254,0.135467 c 0.0508,-0.0042 0.09313,-0.0085 0.131234,-0.0085 0.09313,0 0.143933,0.03387 0.143933,0.105833 0,0.05927 -0.359833,2.256365 -0.359833,2.408765 0,0.122767 0.05927,0.169333 0.2413,0.169333 z m 0.579966,-1.087965 c -0.173567,0 -0.3175,-0.05503 -0.309033,-0.1651 0.07197,-0.829733 0.431799,-1.468966 0.698499,-1.468966 0.2032,0 0.275167,0.237067 0.275167,0.537633 0,0.461433 -0.270934,1.096433 -0.664633,1.096433 z"
         style="font-style:italic;-inkscape-font-specification:'Caladea Italic'"
         id="path1677" />
      <path
         d="m 59.829349,60.609856 c 0.338667,0 0.635,-0.169333 0.7874,-0.321733 L 60.493982,60.13149 c -0.118533,0.0889 -0.359833,0.258233 -0.579966,0.258233 -0.220133,0 -0.376767,-0.1651 -0.376767,-0.537633 v -0.09737 c 0.715433,0 1.236133,-0.3302 1.236133,-0.740833 0,-0.2286 -0.173567,-0.448733 -0.579966,-0.448733 -0.613833,0 -1.0414,0.5334 -1.0414,1.350432 0,0.3302 0.169334,0.694266 0.677333,0.694266 z m -0.270933,-1.062565 c 0.06773,-0.4445 0.283633,-0.7874 0.605366,-0.7874 0.160867,0 0.237067,0.118534 0.237067,0.245533 0,0.313267 -0.334433,0.541867 -0.842433,0.541867 z"
         style="font-style:italic;-inkscape-font-specification:'Caladea Italic'"
         id="path1679" />
      <path
         d="m 62.487881,59.204391 c 0.427567,0 0.6223,0.198966 0.6223,0.491066 0,0.3556 -0.198967,0.690033 -0.554567,0.690033 -0.270933,0 -0.397933,-0.1143 -0.397933,-0.275167 0,-0.07197 0.0254,-0.148166 0.06773,-0.232833 -0.05927,-0.04657 -0.131233,-0.06773 -0.194733,-0.06773 -0.148167,0 -0.2794,0.110067 -0.2794,0.3175 0,0.351366 0.359833,0.482599 0.753533,0.482599 0.550332,0 0.986365,-0.389466 0.986365,-0.939799 0,-0.2667 -0.131233,-0.469899 -0.474133,-0.563033 0.5461,-0.186266 0.656167,-0.533399 0.656167,-0.800099 0,-0.376766 -0.300567,-0.567266 -0.6731,-0.567266 -0.385233,0 -0.863599,0.207433 -0.863599,0.588433 0,0.143933 0.08043,0.203199 0.1778,0.203199 0.07197,0 0.143933,-0.0254 0.207433,-0.0762 -0.0127,-0.04233 -0.01693,-0.08467 -0.01693,-0.118534 0,-0.241299 0.224366,-0.368299 0.444499,-0.368299 0.207433,0 0.325967,0.110066 0.325967,0.321733 0,0.474133 -0.313267,0.715432 -0.757766,0.728132 z"
         style="font-style:italic;-inkscape-font-specification:'Caladea Italic'"
         id="path1681" />
    </g>
    <rect
       style="fill:#ff0000;fill-opacity:1;stroke:#810000;stroke-width:0.5;stroke-linecap:round;stroke-linejoin:round;stroke-dasharray:none;stroke-opacity:1;stop-color:#000000"
       id="rect1609"
       width="3.4885366"
       height="3.4885366"
       x="48.605518"
       y="48.2556" />
    <rect
       style="fill:#14bf00;fill-opacity:1;stroke:#074000;stroke-width:0.5;stroke-linecap:round;stroke-linejoin:round;stroke-dasharray:none;stroke-opacity:1;stop-color:#000000"
       id="rect1609-6"
       width="3.4885366"
       height="3.4885366"
       x="48.605518"
       y="52.867554" />
    <rect
       style="fill:#1c00ff;fill-opacity:1;stroke:#0e0080;stroke-width:0.5;stroke-linecap:round;stroke-linejoin:round;stroke-dasharray:none;stroke-opacity:1;stop-color:#000000"
       id="rect1609-1"
       width="3.4885366"
       height="3.4885366"
       x="48.605518"
       y="57.479507" />
  </g>
</svg>
