1 2 7 8 9 
1
 1->2 UNSAFE!
-----------------------
2
 0->2 UNSAFE!
-----------------------
3
 0->1 1->3 UNSAFE!
-----------------------
4
 0->1 1->2 UNSAFE!
-----------------------
5
 0->1 1->2 UNSAFE!
-----------------------
9 7 6 2 1 
1
 1->2 2->3 UNSAFE!
-----------------------
2
 0->2 2->3 UNSAFE!
-----------------------
3
 0->1 1->3 UNSAFE!
-----------------------
4
 0->1 1->2 2->4 UNSAFE!
-----------------------
5
 0->1 1->2 2->3 UNSAFE!
-----------------------
1 3 2 4 5 
1
 1->2 UNSAFE!
-----------------------
2
 0->2 2->3 3->4
8 6 4 4 1 
1
 1->2 2->3 UNSAFE!
-----------------------
2
 0->2 UNSAFE!
-----------------------
3
 0->1 1->3 3->4
9 2 3 4 5 
1
 1->2 2->3 3->4
1 9 3 4 5 
1
 1->2 UNSAFE!
-----------------------
2
 0->2 2->3 3->4
1 2 9 4 5 
1
 1->2 UNSAFE!
-----------------------
2
 0->2 UNSAFE!
-----------------------
3
 0->1 1->3 3->4
1 2 3 9 5 
1
 1->2 2->3 UNSAFE!
-----------------------
2
 0->2 2->3 UNSAFE!
-----------------------
3
 0->1 1->3 UNSAFE!
-----------------------
4
 0->1 1->2 2->4
1 2 3 4 9 
1
 1->2 2->3 3->4 UNSAFE!
-----------------------
2
 0->2 2->3 3->4 UNSAFE!
-----------------------
3
 0->1 1->3 3->4 UNSAFE!
-----------------------
4
 0->1 1->2 2->4 UNSAFE!
-----------------------
5
 0->1 1->2 2->3
Problem A: safe = 2
Problem B: 1-error safe = 9
